%YAML 1.1
%TAG !u! tag:unity3d.com,2011:
--- !u!1 &7653029319463231824
GameObject:
  m_ObjectHideFlags: 0
  m_CorrespondingSourceObject: {fileID: 0}
  m_PrefabInstance: {fileID: 0}
  m_PrefabAsset: {fileID: 0}
  serializedVersion: 6
  m_Component:
  - component: {fileID: 7653029319463231826}
  - component: {fileID: 7653029319463231825}
  m_Layer: 0
  m_Name: Points
  m_TagString: Untagged
  m_Icon: {fileID: 0}
  m_NavMeshLayer: 0
  m_StaticEditorFlags: 0
  m_IsActive: 1
--- !u!4 &7653029319463231826
Transform:
  m_ObjectHideFlags: 0
  m_CorrespondingSourceObject: {fileID: 0}
  m_PrefabInstance: {fileID: 0}
  m_PrefabAsset: {fileID: 0}
  m_GameObject: {fileID: 7653029319463231824}
  m_LocalRotation: {x: 0, y: 0, z: 0, w: 1}
  m_LocalPosition: {x: 0, y: 0, z: 0}
  m_LocalScale: {x: 1, y: 1, z: 1}
  m_Children: []
  m_Father: {fileID: 0}
  m_RootOrder: 0
  m_LocalEulerAnglesHint: {x: 0, y: 0, z: 0}
--- !u!114 &7653029319463231825
MonoBehaviour:
  m_ObjectHideFlags: 0
  m_CorrespondingSourceObject: {fileID: 0}
  m_PrefabInstance: {fileID: 0}
  m_PrefabAsset: {fileID: 0}
  m_GameObject: {fileID: 7653029319463231824}
  m_Enabled: 1
  m_EditorHideFlags: 0
  m_Script: {fileID: 11500000, guid: 0bd4facec46f61f42a168828f1208ee2, type: 3}
  m_Name: 
  m_EditorClassIdentifier: 
  pointFab: {fileID: 4282459487705708740, guid: 27f4a54f5d444c94bb9b21f3f952d6ca,
    type: 3}
  lineSegFab: {fileID: 2912207425109779014, guid: b626feaf7ca988047897d97527dad77b,
    type: 3}
  lineHolderFab: {fileID: 4433182406677368358, guid: aace852b243d51b4db4e39690bdf60c4,
    type: 3}
  prevSeg: {fileID: 0}
  spawnRad: 10
  loopRadThreshold: 25
  newPoints: []
  lineSegs: []
  pointSegs: []
  lineThickness: 0.1
  drawMask:
    serializedVersion: 2
    m_Bits: 256
  segmentBuffer: 5
  pointMade: 0
  prevLine: {fileID: 0}
